{
    "cordova-plugin-whitelist": {
        "source": {
            "type": "registry",
            "id": "cordova-plugin-whitelist@1"
        },
        "is_top_level": true,
        "variables": {}
    },
    "cordova-plugin-braintree": {
        "source": {
            "type": "registry",
            "id": "https://github.com/taracque/cordova-plugin-braintree"
        },
        "is_top_level": true,
        "variables": {}
    },
    "com.hutchind.cordova.plugins.streamingmedia": {
        "source": {
            "type": "registry",
            "id": "cordova-plugin-streaming-media"
        },
        "is_top_level": true,
        "variables": {}
    },
    "cordova-plugin-device": {
        "source": {
            "type": "registry",
            "id": "cordova-plugin-device"
        },
        "is_top_level": true,
        "variables": {}
    },
    "cordova-plugin-screen-orientation": {
        "source": {
            "type": "registry",
            "id": "cordova-plugin-screen-orientation"
        },
        "is_top_level": true,
        "variables": {}
    },
    "cordova-sqlite-storage": {
        "source": {
            "type": "registry",
            "id": "cordova-sqlite-storage"
        },
        "is_top_level": true,
        "variables": {}
    },
    "es6-promise-plugin": {
        "source": {
            "type": "registry",
            "id": "https://github.com/vstirbu/PromisesPlugin.git"
        },
        "is_top_level": false,
        "variables": {}
    },
    "cordova-plugin-inappbrowser": {
        "source": {
            "type": "registry",
            "id": "cordova-plugin-inappbrowser@1.7.1"
        },
        "is_top_level": true,
        "variables": {}
    }
}